0 0
2.82842712475 1.17157287525
5.04986859383 3.39301434433
7.87829571857 4.56458721959
7.87829571857 7.70617987318
7.87829571857 10.8477725268
7.87829571857 13.9893651804
7.87829571857 17.1309578339
10.7067228433 18.3025307092
13.5351499681 19.4741035845
16.3635770928 20.6456764597
19.1920042176 21.817249335
22.0204313423 22.9888222102
24.2418728114 20.7673807411
26.4633142805 18.5459392721
28.6847557495 16.324497803
